{
        "_task_id": "GDE_DEBUG_3",
        "_start_urls": [
            "https://adyg.gde.ru/nedvizhimost/kommercheskaya",
            "https://alania.gde.ru/nedvizhimost/kommercheskaya",
            "https://alt.gde.ru/nedvizhimost/kommercheskaya",
            "https://altai.gde.ru/nedvizhimost/kommercheskaya",
            "https://amur.gde.ru/nedvizhimost/kommercheskaya",
            "https://arkh.gde.ru/nedvizhimost/kommercheskaya",
            "https://astrakhan.gde.ru/nedvizhimost/kommercheskaya",
            "https://bash.gde.ru/nedvizhimost/kommercheskaya",
            "https://bel.gde.ru/nedvizhimost/kommercheskaya",
            "https://brk.gde.ru/nedvizhimost/kommercheskaya",
            "https://buryatiya.gde.ru/nedvizhimost/kommercheskaya",
            "https://chechnya.gde.ru/nedvizhimost/kommercheskaya",
            "https://chel.gde.ru/nedvizhimost/kommercheskaya",
            "https://chukotka.gde.ru/nedvizhimost/kommercheskaya",
            "https://chuvash.gde.ru/nedvizhimost/kommercheskaya",
            "https://dagestan.gde.ru/nedvizhimost/kommercheskaya",
            "https://eao.gde.ru/nedvizhimost/kommercheskaya",
            "https://hmao.gde.ru/nedvizhimost/kommercheskaya",
            "https://ingushetia.gde.ru/nedvizhimost/kommercheskaya",
            "https://irk.gde.ru/nedvizhimost/kommercheskaya",
            "https://iva.gde.ru/nedvizhimost/kommercheskaya",
            "https://kalm.gde.ru/nedvizhimost/kommercheskaya",
            "https://kalug.gde.ru/nedvizhimost/kommercheskaya",
            "https://kamchatka.gde.ru/nedvizhimost/kommercheskaya",
            "https://karelia.gde.ru/nedvizhimost/kommercheskaya",
            "https://kbr.gde.ru/nedvizhimost/kommercheskaya",
            "https://kchr.gde.ru/nedvizhimost/kommercheskaya",
            "https://kem.gde.ru/nedvizhimost/kommercheskaya",
            "https://kgd.gde.ru/nedvizhimost/kommercheskaya",
            "https://khakas.gde.ru/nedvizhimost/kommercheskaya",
            "https://khv.gde.ru/nedvizhimost/kommercheskaya",
            "https://kir.gde.ru/nedvizhimost/kommercheskaya",
            "https://komi.gde.ru/nedvizhimost/kommercheskaya",
            "https://kras.gde.ru/nedvizhimost/kommercheskaya",
            "https://krgn.gde.ru/nedvizhimost/kommercheskaya",
            "https://krsk.gde.ru/nedvizhimost/kommercheskaya",
            "https://krym.gde.ru/nedvizhimost/kommercheskaya",
            "https://kstr.gde.ru/nedvizhimost/kommercheskaya",
            "https://kuban.gde.ru/nedvizhimost/kommercheskaya",
            "https://lipetsk.gde.ru/nedvizhimost/kommercheskaya",
            "https://mag.gde.ru/nedvizhimost/kommercheskaya",
            "https://mari.gde.ru/nedvizhimost/kommercheskaya",
            "https://mordovia.gde.ru/nedvizhimost/kommercheskaya",
            "https://moskva.gde.ru/nedvizhimost/kommercheskaya",
            "https://mosobl.gde.ru/nedvizhimost/kommercheskaya",
            "https://murman.gde.ru/nedvizhimost/kommercheskaya",
            "https://nnov.gde.ru/nedvizhimost/kommercheskaya",
            "https://nov.gde.ru/nedvizhimost/kommercheskaya",
            "https://nsk.gde.ru/nedvizhimost/kommercheskaya",
            "https://omskobl.gde.ru/nedvizhimost/kommercheskaya",
            "https://oren.gde.ru/nedvizhimost/kommercheskaya",
            "https://orl.gde.ru/nedvizhimost/kommercheskaya",
            "https://pnz.gde.ru/nedvizhimost/kommercheskaya",
            "https://primkray.gde.ru/nedvizhimost/kommercheskaya",
            "https://prm.gde.ru/nedvizhimost/kommercheskaya",
            "https://psk.gde.ru/nedvizhimost/kommercheskaya",
            "https://rostobl.gde.ru/nedvizhimost/kommercheskaya",
            "https://rzn.gde.ru/nedvizhimost/kommercheskaya",
            "https://sakh.gde.ru/nedvizhimost/kommercheskaya",
            "https://sakha.gde.ru/nedvizhimost/kommercheskaya",
            "https://sar.gde.ru/nedvizhimost/kommercheskaya",
            "https://smo.gde.ru/nedvizhimost/kommercheskaya",
            "https://smr.gde.ru/nedvizhimost/kommercheskaya",
            "https://spb.gde.ru/nedvizhimost/kommercheskaya",
            "https://spbobl.gde.ru/nedvizhimost/kommercheskaya",
            "https://stavr.gde.ru/nedvizhimost/kommercheskaya",
            "https://sverdlovsk.gde.ru/nedvizhimost/kommercheskaya",
            "https://tatar.gde.ru/nedvizhimost/kommercheskaya",
            "https://tmb.gde.ru/nedvizhimost/kommercheskaya",
            "https://tmn.gde.ru/nedvizhimost/kommercheskaya",
            "https://tmsk.gde.ru/nedvizhimost/kommercheskaya",
            "https://tul.gde.ru/nedvizhimost/kommercheskaya",
            "https://tuva.gde.ru/nedvizhimost/kommercheskaya",
            "https://tvr.gde.ru/nedvizhimost/kommercheskaya",
            "https://udm.gde.ru/nedvizhimost/kommercheskaya",
            "https://ul.gde.ru/nedvizhimost/kommercheskaya",
            "https://vla.gde.ru/nedvizhimost/kommercheskaya",
            "https://vlg.gde.ru/nedvizhimost/kommercheskaya",
            "https://vlgd.gde.ru/nedvizhimost/kommercheskaya",
            "https://vrn.gde.ru/nedvizhimost/kommercheskaya",
            "https://yanao.gde.ru/nedvizhimost/kommercheskaya",
            "https://yar.gde.ru/nedvizhimost/kommercheskaya",
            "https://zab.gde.ru/nedvizhimost/kommercheskaya"
        ],
        "_segment": "Коммерческая Недвижимость",
        "_operation": "",
        "_federal_subject": "",
        "_source": "http://gde.ru",
        "project_id": "metaspider",
        "spider_id": "metacrawler",
        "global_settings": {
            "CONCURRENT_REQUESTS": 1024,
            "SPLASH_URL": "http://0.0.0.0:8050",
            "LOG_LEVEL": "INFO",
            "AUTOTHROTTLE_ENABLED": false,
            "AUTOTHROTTLE_START_DELAY": 1,
            "AUTOTHROTTLE_MAX_DELAY": 60,
            "AUTOTHROTTLE_TARGET_CONCURRENCY": 1024,
            "CONCURRENT_REQUESTS_PER_DOMAIN": 1024,
            "RETRY_ENABLED": true,
            "RETRY_HTTP_CODES": [
                500,
                503,
                502,
                504,
                400,
                403,
                408,
                429,
                505,
                303,
                302,
                301,
                404,
                407,
                502,
                307,
                410,
                451
            ],
            "HTTPERROR_ALLOWED_CODES": [],
            "RETRY_TIMES": 20,
            "ROBOTSTXT_ENABLED": false,
            "ROBOTSTXT_OBEY": false,
            "REDIRECT_ENABLED": false,
            "COOKIES_ENABLED": true,
            "DOWNLOAD_FAIL_ON_DATALOSS": false,
            "RANDOM_UA_TYPE": "random",
            "DOWNLOAD_TIMEOUT": 60,
            "CLOSESPIDER_ITEMCOUNT": 0,
            "CLOSESPIDER_ERRORCOUNT": 0
        },
        "methods": {
            "crawling_type": "common",
            "allowed_domains": [],
            "proxy_settings": {
                "types": [
                    "https"
                ],
                "amount": 10000,
                "save": false
            },
            "save_cookies": true
        },
        "crawl_tree": [
            {
                "pagination_urls": {
                    "path": "//li[@class='page active']/following-sibling::li[@class='page'][1]/a/@href",
                    "methods": {
                        "crawling_type": "common",
                        "allowed_domains": [],
                        "proxy_settings": {
                            "types": [
                                "https"
                            ],
                            "amount": 10000,
                            "save": false
                        },
                        "save_cookies": true
                    }
                },
                "item_urls": {
                    "path": "//div[@class='title']/a/@href",
                    "methods": {
                        "crawling_type": "common",
                        "allowed_domains": [],
                        "proxy_settings": {
                            "types": [
                                "https"
                            ],
                            "amount": 10000,
                            "save": false
                        },
                        "save_cookies": true
                    }
                }
            }
        ],
        "item_page": {
            "fields": {
                "source_latitude": {
                    "type": "float",
                    "path": "//*[@id='one_ads_show']/div[@class='show_map_block']/input[@class='ads_geo_lat']",
                    "regex": "\\d+[\\,\\.]{0,1}\\d{1,100}",
                    "operations": []
                },
                "address": {
                    "type": "string",
                    "path": "//span[@class='address']/text()",
                    "operations": []
                },
                "purpose": {
                    "type": "string",
                    "path": "//ul[@class = 'feature-list']//dt[contains(.,'Вид объекта:')]/following-sibling::dd/text()",
                    "operations": []
                },
                "source_longitude": {
                    "type": "float",
                    "path": "//*[@id='one_ads_show']/div[@class='show_map_block']/input[@class='ads_geo_lng']",
                    "regex": "\\d+[\\,\\.]{0,1}\\d{1,100}",
                    "operations": []
                },
                "area_total": {
                    "type": "float",
                    "path": "//ul[@class = 'feature-list']//dt[contains(.,'Площадь')]/following-sibling::dd/text()",
                    "operations": []
                },
                "seller_name": {
                    "type": "string",
                    "path": "//a[@class = 'user']/text()",
                    "operations": []
                },
                "date_info": {
                    "type": "date",
                    "time": "now",
                    "operations": []
                },
                "date_created": {
                    "type": "date",
                    "path": "//div[@class='date']/text()",
                    "time": "from string",
                    "regex": "(?<=c )\\S+",
                    "operations": []
                },
                "title_name": {
                    "type": "string",
                    "path": "//h1[@class='product-name']/text()",
                    "operations": []
                },
                "price_total": {
                    "type": "float",
                    "path": "(//span[@class='price']/text())[1]",
                    "regex": "\\d+",
                    "operations": []
                },
                "description": {
                    "type": "list_to_string",
                    "path": "//p[@itemprop='description']/text()",
                    "operations": []
                }
            },
            "follow": [
                {
                    "url_constructor": {
                        "insert": {
                            "$id$": {
                                "type": "string",
                                "path": "//a[@class='add favorite-add']/@data-id"
                            }
                        }
                    },
                    "fields": {
                        "phone": {
                            "type": "phone",
                            "path": "//a[@class='tel']/@href"
                        }
                    },
                    "headers": {
                        "x-requested-with": {
                            "type": "string",
                            "value": "XMLHttpRequest"
                        }
                    },
                    "methods": {
                        "crawling_type": "common",
                        "content_type": "html",
                        "filter_duplicates": false,
                        "allowed_domains": [],
                        "proxy_settings": {
                            "types": [
                                "https"
                            ],
                            "amount": 10000,
                            "save": true
                        },
                        "save_cookies": true
                    },
                    "url": "https://spb.gde.ru/catalog/info/phone/id/$id$"
                }
            ]
        }
    }